{
	"id": "2ad8f8fcd3b07096d112ac3b31b4406d",
	"_format": "hh-sol-build-info-1",
	"solcVersion": "0.8.7",
	"solcLongVersion": "0.8.7+commit.e28d00a7",
	"input": {
		"language": "Solidity",
		"sources": {
			"ERC20.sol": {
				"content": "pragma solidity^0.8.7;\r\n\r\n// ----------------------------------------------------------------------------\r\n// ERC Token Standard #20 Interface\r\n// https://github.com/ethereum/EIPs/blob/master/EIPS/eip-20-token-standard.md\r\n// ----------------------------------------------------------------------------\r\nabstract contract ERC20 {\r\n\r\n    function totalSupply() public virtual view returns (uint256);\r\n    function balanceOf(address _owner)  public virtual view returns (uint256 balance);\r\n    function transfer(address _to, uint256 _value)  public virtual returns (bool success);\r\n    function transferFrom(address _from, address _to, uint256 _value)  public virtual returns (bool success);\r\n    function approve(address _spender, uint256 _value)  public virtual returns (bool success);\r\n    function allowance(address _owner, address _spender)  public virtual view returns (uint256 remaining);\r\n  \r\n  event Transfer(address indexed from, address indexed to, uint256 value);\r\n  event Approval(address indexed owner, address indexed spender, uint256 value);\r\n  \r\n}"
			}
		},
		"settings": {
			"optimizer": {
				"enabled": false,
				"runs": 200
			},
			"outputSelection": {
				"*": {
					"": [
						"ast"
					],
					"*": [
						"abi",
						"metadata",
						"devdoc",
						"userdoc",
						"storageLayout",
						"evm.legacyAssembly",
						"evm.bytecode",
						"evm.deployedBytecode",
						"evm.methodIdentifiers",
						"evm.gasEstimates",
						"evm.assembly"
					]
				}
			}
		}
	},
	"output": {
		"contracts": {
			"ERC20.sol": {
				"ERC20": {
					"abi": [
						{
							"anonymous": false,
							"inputs": [
								{
									"indexed": true,
									"internalType": "address",
									"name": "owner",
									"type": "address"
								},
								{
									"indexed": true,
									"internalType": "address",
									"name": "spender",
									"type": "address"
								},
								{
									"indexed": false,
									"internalType": "uint256",
									"name": "value",
									"type": "uint256"
								}
							],
							"name": "Approval",
							"type": "event"
						},
						{
							"anonymous": false,
							"inputs": [
								{
									"indexed": true,
									"internalType": "address",
									"name": "from",
									"type": "address"
								},
								{
									"indexed": true,
									"internalType": "address",
									"name": "to",
									"type": "address"
								},
								{
									"indexed": false,
									"internalType": "uint256",
									"name": "value",
									"type": "uint256"
								}
							],
							"name": "Transfer",
							"type": "event"
						},
						{
							"inputs": [
								{
									"internalType": "address",
									"name": "_owner",
									"type": "address"
								},
								{
									"internalType": "address",
									"name": "_spender",
									"type": "address"
								}
							],
							"name": "allowance",
							"outputs": [
								{
									"internalType": "uint256",
									"name": "remaining",
									"type": "uint256"
								}
							],
							"stateMutability": "view",
							"type": "function"
						},
						{
							"inputs": [
								{
									"internalType": "address",
									"name": "_spender",
									"type": "address"
								},
								{
									"internalType": "uint256",
									"name": "_value",
									"type": "uint256"
								}
							],
							"name": "approve",
							"outputs": [
								{
									"internalType": "bool",
									"name": "success",
									"type": "bool"
								}
							],
							"stateMutability": "nonpayable",
							"type": "function"
						},
						{
							"inputs": [
								{
									"internalType": "address",
									"name": "_owner",
									"type": "address"
								}
							],
							"name": "balanceOf",
							"outputs": [
								{
									"internalType": "uint256",
									"name": "balance",
									"type": "uint256"
								}
							],
							"stateMutability": "view",
							"type": "function"
						},
						{
							"inputs": [],
							"name": "totalSupply",
							"outputs": [
								{
									"internalType": "uint256",
									"name": "",
									"type": "uint256"
								}
							],
							"stateMutability": "view",
							"type": "function"
						},
						{
							"inputs": [
								{
									"internalType": "address",
									"name": "_to",
									"type": "address"
								},
								{
									"internalType": "uint256",
									"name": "_value",
									"type": "uint256"
								}
							],
							"name": "transfer",
							"outputs": [
								{
									"internalType": "bool",
									"name": "success",
									"type": "bool"
								}
							],
							"stateMutability": "nonpayable",
							"type": "function"
						},
						{
							"inputs": [
								{
									"internalType": "address",
									"name": "_from",
									"type": "address"
								},
								{
									"internalType": "address",
									"name": "_to",
									"type": "address"
								},
								{
									"internalType": "uint256",
									"name": "_value",
									"type": "uint256"
								}
							],
							"name": "transferFrom",
							"outputs": [
								{
									"internalType": "bool",
									"name": "success",
									"type": "bool"
								}
							],
							"stateMutability": "nonpayable",
							"type": "function"
						}
					],
					"devdoc": {
						"kind": "dev",
						"methods": {},
						"version": 1
					},
					"evm": {
						"assembly": "",
						"bytecode": {
							"functionDebugData": {},
							"generatedSources": [],
							"linkReferences": {},
							"object": "",
							"opcodes": "",
							"sourceMap": ""
						},
						"deployedBytecode": {
							"functionDebugData": {},
							"generatedSources": [],
							"immutableReferences": {},
							"linkReferences": {},
							"object": "",
							"opcodes": "",
							"sourceMap": ""
						},
						"gasEstimates": null,
						"legacyAssembly": null,
						"methodIdentifiers": {
							"allowance(address,address)": "dd62ed3e",
							"approve(address,uint256)": "095ea7b3",
							"balanceOf(address)": "70a08231",
							"totalSupply()": "18160ddd",
							"transfer(address,uint256)": "a9059cbb",
							"transferFrom(address,address,uint256)": "23b872dd"
						}
					},
					"metadata": "{\"compiler\":{\"version\":\"0.8.7+commit.e28d00a7\"},\"language\":\"Solidity\",\"output\":{\"abi\":[{\"anonymous\":false,\"inputs\":[{\"indexed\":true,\"internalType\":\"address\",\"name\":\"owner\",\"type\":\"address\"},{\"indexed\":true,\"internalType\":\"address\",\"name\":\"spender\",\"type\":\"address\"},{\"indexed\":false,\"internalType\":\"uint256\",\"name\":\"value\",\"type\":\"uint256\"}],\"name\":\"Approval\",\"type\":\"event\"},{\"anonymous\":false,\"inputs\":[{\"indexed\":true,\"internalType\":\"address\",\"name\":\"from\",\"type\":\"address\"},{\"indexed\":true,\"internalType\":\"address\",\"name\":\"to\",\"type\":\"address\"},{\"indexed\":false,\"internalType\":\"uint256\",\"name\":\"value\",\"type\":\"uint256\"}],\"name\":\"Transfer\",\"type\":\"event\"},{\"inputs\":[{\"internalType\":\"address\",\"name\":\"_owner\",\"type\":\"address\"},{\"internalType\":\"address\",\"name\":\"_spender\",\"type\":\"address\"}],\"name\":\"allowance\",\"outputs\":[{\"internalType\":\"uint256\",\"name\":\"remaining\",\"type\":\"uint256\"}],\"stateMutability\":\"view\",\"type\":\"function\"},{\"inputs\":[{\"internalType\":\"address\",\"name\":\"_spender\",\"type\":\"address\"},{\"internalType\":\"uint256\",\"name\":\"_value\",\"type\":\"uint256\"}],\"name\":\"approve\",\"outputs\":[{\"internalType\":\"bool\",\"name\":\"success\",\"type\":\"bool\"}],\"stateMutability\":\"nonpayable\",\"type\":\"function\"},{\"inputs\":[{\"internalType\":\"address\",\"name\":\"_owner\",\"type\":\"address\"}],\"name\":\"balanceOf\",\"outputs\":[{\"internalType\":\"uint256\",\"name\":\"balance\",\"type\":\"uint256\"}],\"stateMutability\":\"view\",\"type\":\"function\"},{\"inputs\":[],\"name\":\"totalSupply\",\"outputs\":[{\"internalType\":\"uint256\",\"name\":\"\",\"type\":\"uint256\"}],\"stateMutability\":\"view\",\"type\":\"function\"},{\"inputs\":[{\"internalType\":\"address\",\"name\":\"_to\",\"type\":\"address\"},{\"internalType\":\"uint256\",\"name\":\"_value\",\"type\":\"uint256\"}],\"name\":\"transfer\",\"outputs\":[{\"internalType\":\"bool\",\"name\":\"success\",\"type\":\"bool\"}],\"stateMutability\":\"nonpayable\",\"type\":\"function\"},{\"inputs\":[{\"internalType\":\"address\",\"name\":\"_from\",\"type\":\"address\"},{\"internalType\":\"address\",\"name\":\"_to\",\"type\":\"address\"},{\"internalType\":\"uint256\",\"name\":\"_value\",\"type\":\"uint256\"}],\"name\":\"transferFrom\",\"outputs\":[{\"internalType\":\"bool\",\"name\":\"success\",\"type\":\"bool\"}],\"stateMutability\":\"nonpayable\",\"type\":\"function\"}],\"devdoc\":{\"kind\":\"dev\",\"methods\":{},\"version\":1},\"userdoc\":{\"kind\":\"user\",\"methods\":{},\"version\":1}},\"settings\":{\"compilationTarget\":{\"ERC20.sol\":\"ERC20\"},\"evmVersion\":\"london\",\"libraries\":{},\"metadata\":{\"bytecodeHash\":\"ipfs\"},\"optimizer\":{\"enabled\":false,\"runs\":200},\"remappings\":[]},\"sources\":{\"ERC20.sol\":{\"keccak256\":\"0x9b8c25188718cc4dde2b4274ed4116f6d7065dd9e4ec652b74e4cc2502ac4d30\",\"urls\":[\"bzz-raw://8e5f0b537629871f6dda57ce6bacabe1b62257fefa9ec73af9af6423d7684359\",\"dweb:/ipfs/QmevrDvhNntaQdyEsXi6MHYRBrSWXy285voMv9WmkU9S2f\"]}},\"version\":1}",
					"storageLayout": {
						"storage": [],
						"types": null
					},
					"userdoc": {
						"kind": "user",
						"methods": {},
						"version": 1
					}
				}
			}
		},
		"errors": [
			{
				"component": "general",
				"errorCode": "1878",
				"formattedMessage": "Warning: SPDX license identifier not provided in source file. Before publishing, consider adding a comment containing \"SPDX-License-Identifier: <SPDX-License>\" to each source file. Use \"SPDX-License-Identifier: UNLICENSED\" for non-open-source code. Please see https://spdx.org for more information.\n--> ERC20.sol\n\n",
				"message": "SPDX license identifier not provided in source file. Before publishing, consider adding a comment containing \"SPDX-License-Identifier: <SPDX-License>\" to each source file. Use \"SPDX-License-Identifier: UNLICENSED\" for non-open-source code. Please see https://spdx.org for more information.",
				"severity": "warning",
				"sourceLocation": {
					"end": -1,
					"file": "ERC20.sol",
					"start": -1
				},
				"type": "Warning"
			}
		],
		"sources": {
			"ERC20.sol": {
				"ast": {
					"absolutePath": "ERC20.sol",
					"exportedSymbols": {
						"ERC20": [
							68
						]
					},
					"id": 69,
					"nodeType": "SourceUnit",
					"nodes": [
						{
							"id": 1,
							"literals": [
								"solidity",
								"^",
								"0.8",
								".7"
							],
							"nodeType": "PragmaDirective",
							"src": "0:22:0"
						},
						{
							"abstract": true,
							"baseContracts": [],
							"contractDependencies": [],
							"contractKind": "contract",
							"fullyImplemented": false,
							"id": 68,
							"linearizedBaseContracts": [
								68
							],
							"name": "ERC20",
							"nameLocation": "322:5:0",
							"nodeType": "ContractDefinition",
							"nodes": [
								{
									"functionSelector": "18160ddd",
									"id": 6,
									"implemented": false,
									"kind": "function",
									"modifiers": [],
									"name": "totalSupply",
									"nameLocation": "346:11:0",
									"nodeType": "FunctionDefinition",
									"parameters": {
										"id": 2,
										"nodeType": "ParameterList",
										"parameters": [],
										"src": "357:2:0"
									},
									"returnParameters": {
										"id": 5,
										"nodeType": "ParameterList",
										"parameters": [
											{
												"constant": false,
												"id": 4,
												"mutability": "mutable",
												"name": "",
												"nameLocation": "-1:-1:-1",
												"nodeType": "VariableDeclaration",
												"scope": 6,
												"src": "389:7:0",
												"stateVariable": false,
												"storageLocation": "default",
												"typeDescriptions": {
													"typeIdentifier": "t_uint256",
													"typeString": "uint256"
												},
												"typeName": {
													"id": 3,
													"name": "uint256",
													"nodeType": "ElementaryTypeName",
													"src": "389:7:0",
													"typeDescriptions": {
														"typeIdentifier": "t_uint256",
														"typeString": "uint256"
													}
												},
												"visibility": "internal"
											}
										],
										"src": "388:9:0"
									},
									"scope": 68,
									"src": "337:61:0",
									"stateMutability": "view",
									"virtual": true,
									"visibility": "public"
								},
								{
									"functionSelector": "70a08231",
									"id": 13,
									"implemented": false,
									"kind": "function",
									"modifiers": [],
									"name": "balanceOf",
									"nameLocation": "413:9:0",
									"nodeType": "FunctionDefinition",
									"parameters": {
										"id": 9,
										"nodeType": "ParameterList",
										"parameters": [
											{
												"constant": false,
												"id": 8,
												"mutability": "mutable",
												"name": "_owner",
												"nameLocation": "431:6:0",
												"nodeType": "VariableDeclaration",
												"scope": 13,
												"src": "423:14:0",
												"stateVariable": false,
												"storageLocation": "default",
												"typeDescriptions": {
													"typeIdentifier": "t_address",
													"typeString": "address"
												},
												"typeName": {
													"id": 7,
													"name": "address",
													"nodeType": "ElementaryTypeName",
													"src": "423:7:0",
													"stateMutability": "nonpayable",
													"typeDescriptions": {
														"typeIdentifier": "t_address",
														"typeString": "address"
													}
												},
												"visibility": "internal"
											}
										],
										"src": "422:16:0"
									},
									"returnParameters": {
										"id": 12,
										"nodeType": "ParameterList",
										"parameters": [
											{
												"constant": false,
												"id": 11,
												"mutability": "mutable",
												"name": "balance",
												"nameLocation": "477:7:0",
												"nodeType": "VariableDeclaration",
												"scope": 13,
												"src": "469:15:0",
												"stateVariable": false,
												"storageLocation": "default",
												"typeDescriptions": {
													"typeIdentifier": "t_uint256",
													"typeString": "uint256"
												},
												"typeName": {
													"id": 10,
													"name": "uint256",
													"nodeType": "ElementaryTypeName",
													"src": "469:7:0",
													"typeDescriptions": {
														"typeIdentifier": "t_uint256",
														"typeString": "uint256"
													}
												},
												"visibility": "internal"
											}
										],
										"src": "468:17:0"
									},
									"scope": 68,
									"src": "404:82:0",
									"stateMutability": "view",
									"virtual": true,
									"visibility": "public"
								},
								{
									"functionSelector": "a9059cbb",
									"id": 22,
									"implemented": false,
									"kind": "function",
									"modifiers": [],
									"name": "transfer",
									"nameLocation": "501:8:0",
									"nodeType": "FunctionDefinition",
									"parameters": {
										"id": 18,
										"nodeType": "ParameterList",
										"parameters": [
											{
												"constant": false,
												"id": 15,
												"mutability": "mutable",
												"name": "_to",
												"nameLocation": "518:3:0",
												"nodeType": "VariableDeclaration",
												"scope": 22,
												"src": "510:11:0",
												"stateVariable": false,
												"storageLocation": "default",
												"typeDescriptions": {
													"typeIdentifier": "t_address",
													"typeString": "address"
												},
												"typeName": {
													"id": 14,
													"name": "address",
													"nodeType": "ElementaryTypeName",
													"src": "510:7:0",
													"stateMutability": "nonpayable",
													"typeDescriptions": {
														"typeIdentifier": "t_address",
														"typeString": "address"
													}
												},
												"visibility": "internal"
											},
											{
												"constant": false,
												"id": 17,
												"mutability": "mutable",
												"name": "_value",
												"nameLocation": "531:6:0",
												"nodeType": "VariableDeclaration",
												"scope": 22,
												"src": "523:14:0",
												"stateVariable": false,
												"storageLocation": "default",
												"typeDescriptions": {
													"typeIdentifier": "t_uint256",
													"typeString": "uint256"
												},
												"typeName": {
													"id": 16,
													"name": "uint256",
													"nodeType": "ElementaryTypeName",
													"src": "523:7:0",
													"typeDescriptions": {
														"typeIdentifier": "t_uint256",
														"typeString": "uint256"
													}
												},
												"visibility": "internal"
											}
										],
										"src": "509:29:0"
									},
									"returnParameters": {
										"id": 21,
										"nodeType": "ParameterList",
										"parameters": [
											{
												"constant": false,
												"id": 20,
												"mutability": "mutable",
												"name": "success",
												"nameLocation": "569:7:0",
												"nodeType": "VariableDeclaration",
												"scope": 22,
												"src": "564:12:0",
												"stateVariable": false,
												"storageLocation": "default",
												"typeDescriptions": {
													"typeIdentifier": "t_bool",
													"typeString": "bool"
												},
												"typeName": {
													"id": 19,
													"name": "bool",
													"nodeType": "ElementaryTypeName",
													"src": "564:4:0",
													"typeDescriptions": {
														"typeIdentifier": "t_bool",
														"typeString": "bool"
													}
												},
												"visibility": "internal"
											}
										],
										"src": "563:14:0"
									},
									"scope": 68,
									"src": "492:86:0",
									"stateMutability": "nonpayable",
									"virtual": true,
									"visibility": "public"
								},
								{
									"functionSelector": "23b872dd",
									"id": 33,
									"implemented": false,
									"kind": "function",
									"modifiers": [],
									"name": "transferFrom",
									"nameLocation": "593:12:0",
									"nodeType": "FunctionDefinition",
									"parameters": {
										"id": 29,
										"nodeType": "ParameterList",
										"parameters": [
											{
												"constant": false,
												"id": 24,
												"mutability": "mutable",
												"name": "_from",
												"nameLocation": "614:5:0",
												"nodeType": "VariableDeclaration",
												"scope": 33,
												"src": "606:13:0",
												"stateVariable": false,
												"storageLocation": "default",
												"typeDescriptions": {
													"typeIdentifier": "t_address",
													"typeString": "address"
												},
												"typeName": {
													"id": 23,
													"name": "address",
													"nodeType": "ElementaryTypeName",
													"src": "606:7:0",
													"stateMutability": "nonpayable",
													"typeDescriptions": {
														"typeIdentifier": "t_address",
														"typeString": "address"
													}
												},
												"visibility": "internal"
											},
											{
												"constant": false,
												"id": 26,
												"mutability": "mutable",
												"name": "_to",
												"nameLocation": "629:3:0",
												"nodeType": "VariableDeclaration",
												"scope": 33,
												"src": "621:11:0",
												"stateVariable": false,
												"storageLocation": "default",
												"typeDescriptions": {
													"typeIdentifier": "t_address",
													"typeString": "address"
												},
												"typeName": {
													"id": 25,
													"name": "address",
													"nodeType": "ElementaryTypeName",
													"src": "621:7:0",
													"stateMutability": "nonpayable",
													"typeDescriptions": {
														"typeIdentifier": "t_address",
														"typeString": "address"
													}
												},
												"visibility": "internal"
											},
											{
												"constant": false,
												"id": 28,
												"mutability": "mutable",
												"name": "_value",
												"nameLocation": "642:6:0",
												"nodeType": "VariableDeclaration",
												"scope": 33,
												"src": "634:14:0",
												"stateVariable": false,
												"storageLocation": "default",
												"typeDescriptions": {
													"typeIdentifier": "t_uint256",
													"typeString": "uint256"
												},
												"typeName": {
													"id": 27,
													"name": "uint256",
													"nodeType": "ElementaryTypeName",
													"src": "634:7:0",
													"typeDescriptions": {
														"typeIdentifier": "t_uint256",
														"typeString": "uint256"
													}
												},
												"visibility": "internal"
											}
										],
										"src": "605:44:0"
									},
									"returnParameters": {
										"id": 32,
										"nodeType": "ParameterList",
										"parameters": [
											{
												"constant": false,
												"id": 31,
												"mutability": "mutable",
												"name": "success",
												"nameLocation": "680:7:0",
												"nodeType": "VariableDeclaration",
												"scope": 33,
												"src": "675:12:0",
												"stateVariable": false,
												"storageLocation": "default",
												"typeDescriptions": {
													"typeIdentifier": "t_bool",
													"typeString": "bool"
												},
												"typeName": {
													"id": 30,
													"name": "bool",
													"nodeType": "ElementaryTypeName",
													"src": "675:4:0",
													"typeDescriptions": {
														"typeIdentifier": "t_bool",
														"typeString": "bool"
													}
												},
												"visibility": "internal"
											}
										],
										"src": "674:14:0"
									},
									"scope": 68,
									"src": "584:105:0",
									"stateMutability": "nonpayable",
									"virtual": true,
									"visibility": "public"
								},
								{
									"functionSelector": "095ea7b3",
									"id": 42,
									"implemented": false,
									"kind": "function",
									"modifiers": [],
									"name": "approve",
									"nameLocation": "704:7:0",
									"nodeType": "FunctionDefinition",
									"parameters": {
										"id": 38,
										"nodeType": "ParameterList",
										"parameters": [
											{
												"constant": false,
												"id": 35,
												"mutability": "mutable",
												"name": "_spender",
												"nameLocation": "720:8:0",
												"nodeType": "VariableDeclaration",
												"scope": 42,
												"src": "712:16:0",
												"stateVariable": false,
												"storageLocation": "default",
												"typeDescriptions": {
													"typeIdentifier": "t_address",
													"typeString": "address"
												},
												"typeName": {
													"id": 34,
													"name": "address",
													"nodeType": "ElementaryTypeName",
													"src": "712:7:0",
													"stateMutability": "nonpayable",
													"typeDescriptions": {
														"typeIdentifier": "t_address",
														"typeString": "address"
													}
												},
												"visibility": "internal"
											},
											{
												"constant": false,
												"id": 37,
												"mutability": "mutable",
												"name": "_value",
												"nameLocation": "738:6:0",
												"nodeType": "VariableDeclaration",
												"scope": 42,
												"src": "730:14:0",
												"stateVariable": false,
												"storageLocation": "default",
												"typeDescriptions": {
													"typeIdentifier": "t_uint256",
													"typeString": "uint256"
												},
												"typeName": {
													"id": 36,
													"name": "uint256",
													"nodeType": "ElementaryTypeName",
													"src": "730:7:0",
													"typeDescriptions": {
														"typeIdentifier": "t_uint256",
														"typeString": "uint256"
													}
												},
												"visibility": "internal"
											}
										],
										"src": "711:34:0"
									},
									"returnParameters": {
										"id": 41,
										"nodeType": "ParameterList",
										"parameters": [
											{
												"constant": false,
												"id": 40,
												"mutability": "mutable",
												"name": "success",
												"nameLocation": "776:7:0",
												"nodeType": "VariableDeclaration",
												"scope": 42,
												"src": "771:12:0",
												"stateVariable": false,
												"storageLocation": "default",
												"typeDescriptions": {
													"typeIdentifier": "t_bool",
													"typeString": "bool"
												},
												"typeName": {
													"id": 39,
													"name": "bool",
													"nodeType": "ElementaryTypeName",
													"src": "771:4:0",
													"typeDescriptions": {
														"typeIdentifier": "t_bool",
														"typeString": "bool"
													}
												},
												"visibility": "internal"
											}
										],
										"src": "770:14:0"
									},
									"scope": 68,
									"src": "695:90:0",
									"stateMutability": "nonpayable",
									"virtual": true,
									"visibility": "public"
								},
								{
									"functionSelector": "dd62ed3e",
									"id": 51,
									"implemented": false,
									"kind": "function",
									"modifiers": [],
									"name": "allowance",
									"nameLocation": "800:9:0",
									"nodeType": "FunctionDefinition",
									"parameters": {
										"id": 47,
										"nodeType": "ParameterList",
										"parameters": [
											{
												"constant": false,
												"id": 44,
												"mutability": "mutable",
												"name": "_owner",
												"nameLocation": "818:6:0",
												"nodeType": "VariableDeclaration",
												"scope": 51,
												"src": "810:14:0",
												"stateVariable": false,
												"storageLocation": "default",
												"typeDescriptions": {
													"typeIdentifier": "t_address",
													"typeString": "address"
												},
												"typeName": {
													"id": 43,
													"name": "address",
													"nodeType": "ElementaryTypeName",
													"src": "810:7:0",
													"stateMutability": "nonpayable",
													"typeDescriptions": {
														"typeIdentifier": "t_address",
														"typeString": "address"
													}
												},
												"visibility": "internal"
											},
											{
												"constant": false,
												"id": 46,
												"mutability": "mutable",
												"name": "_spender",
												"nameLocation": "834:8:0",
												"nodeType": "VariableDeclaration",
												"scope": 51,
												"src": "826:16:0",
												"stateVariable": false,
												"storageLocation": "default",
												"typeDescriptions": {
													"typeIdentifier": "t_address",
													"typeString": "address"
												},
												"typeName": {
													"id": 45,
													"name": "address",
													"nodeType": "ElementaryTypeName",
													"src": "826:7:0",
													"stateMutability": "nonpayable",
													"typeDescriptions": {
														"typeIdentifier": "t_address",
														"typeString": "address"
													}
												},
												"visibility": "internal"
											}
										],
										"src": "809:34:0"
									},
									"returnParameters": {
										"id": 50,
										"nodeType": "ParameterList",
										"parameters": [
											{
												"constant": false,
												"id": 49,
												"mutability": "mutable",
												"name": "remaining",
												"nameLocation": "882:9:0",
												"nodeType": "VariableDeclaration",
												"scope": 51,
												"src": "874:17:0",
												"stateVariable": false,
												"storageLocation": "default",
												"typeDescriptions": {
													"typeIdentifier": "t_uint256",
													"typeString": "uint256"
												},
												"typeName": {
													"id": 48,
													"name": "uint256",
													"nodeType": "ElementaryTypeName",
													"src": "874:7:0",
													"typeDescriptions": {
														"typeIdentifier": "t_uint256",
														"typeString": "uint256"
													}
												},
												"visibility": "internal"
											}
										],
										"src": "873:19:0"
									},
									"scope": 68,
									"src": "791:102:0",
									"stateMutability": "view",
									"virtual": true,
									"visibility": "public"
								},
								{
									"anonymous": false,
									"id": 59,
									"name": "Transfer",
									"nameLocation": "907:8:0",
									"nodeType": "EventDefinition",
									"parameters": {
										"id": 58,
										"nodeType": "ParameterList",
										"parameters": [
											{
												"constant": false,
												"id": 53,
												"indexed": true,
												"mutability": "mutable",
												"name": "from",
												"nameLocation": "932:4:0",
												"nodeType": "VariableDeclaration",
												"scope": 59,
												"src": "916:20:0",
												"stateVariable": false,
												"storageLocation": "default",
												"typeDescriptions": {
													"typeIdentifier": "t_address",
													"typeString": "address"
												},
												"typeName": {
													"id": 52,
													"name": "address",
													"nodeType": "ElementaryTypeName",
													"src": "916:7:0",
													"stateMutability": "nonpayable",
													"typeDescriptions": {
														"typeIdentifier": "t_address",
														"typeString": "address"
													}
												},
												"visibility": "internal"
											},
											{
												"constant": false,
												"id": 55,
												"indexed": true,
												"mutability": "mutable",
												"name": "to",
												"nameLocation": "954:2:0",
												"nodeType": "VariableDeclaration",
												"scope": 59,
												"src": "938:18:0",
												"stateVariable": false,
												"storageLocation": "default",
												"typeDescriptions": {
													"typeIdentifier": "t_address",
													"typeString": "address"
												},
												"typeName": {
													"id": 54,
													"name": "address",
													"nodeType": "ElementaryTypeName",
													"src": "938:7:0",
													"stateMutability": "nonpayable",
													"typeDescriptions": {
														"typeIdentifier": "t_address",
														"typeString": "address"
													}
												},
												"visibility": "internal"
											},
											{
												"constant": false,
												"id": 57,
												"indexed": false,
												"mutability": "mutable",
												"name": "value",
												"nameLocation": "966:5:0",
												"nodeType": "VariableDeclaration",
												"scope": 59,
												"src": "958:13:0",
												"stateVariable": false,
												"storageLocation": "default",
												"typeDescriptions": {
													"typeIdentifier": "t_uint256",
													"typeString": "uint256"
												},
												"typeName": {
													"id": 56,
													"name": "uint256",
													"nodeType": "ElementaryTypeName",
													"src": "958:7:0",
													"typeDescriptions": {
														"typeIdentifier": "t_uint256",
														"typeString": "uint256"
													}
												},
												"visibility": "internal"
											}
										],
										"src": "915:57:0"
									},
									"src": "901:72:0"
								},
								{
									"anonymous": false,
									"id": 67,
									"name": "Approval",
									"nameLocation": "983:8:0",
									"nodeType": "EventDefinition",
									"parameters": {
										"id": 66,
										"nodeType": "ParameterList",
										"parameters": [
											{
												"constant": false,
												"id": 61,
												"indexed": true,
												"mutability": "mutable",
												"name": "owner",
												"nameLocation": "1008:5:0",
												"nodeType": "VariableDeclaration",
												"scope": 67,
												"src": "992:21:0",
												"stateVariable": false,
												"storageLocation": "default",
												"typeDescriptions": {
													"typeIdentifier": "t_address",
													"typeString": "address"
												},
												"typeName": {
													"id": 60,
													"name": "address",
													"nodeType": "ElementaryTypeName",
													"src": "992:7:0",
													"stateMutability": "nonpayable",
													"typeDescriptions": {
														"typeIdentifier": "t_address",
														"typeString": "address"
													}
												},
												"visibility": "internal"
											},
											{
												"constant": false,
												"id": 63,
												"indexed": true,
												"mutability": "mutable",
												"name": "spender",
												"nameLocation": "1031:7:0",
												"nodeType": "VariableDeclaration",
												"scope": 67,
												"src": "1015:23:0",
												"stateVariable": false,
												"storageLocation": "default",
												"typeDescriptions": {
													"typeIdentifier": "t_address",
													"typeString": "address"
												},
												"typeName": {
													"id": 62,
													"name": "address",
													"nodeType": "ElementaryTypeName",
													"src": "1015:7:0",
													"stateMutability": "nonpayable",
													"typeDescriptions": {
														"typeIdentifier": "t_address",
														"typeString": "address"
													}
												},
												"visibility": "internal"
											},
											{
												"constant": false,
												"id": 65,
												"indexed": false,
												"mutability": "mutable",
												"name": "value",
												"nameLocation": "1048:5:0",
												"nodeType": "VariableDeclaration",
												"scope": 67,
												"src": "1040:13:0",
												"stateVariable": false,
												"storageLocation": "default",
												"typeDescriptions": {
													"typeIdentifier": "t_uint256",
													"typeString": "uint256"
												},
												"typeName": {
													"id": 64,
													"name": "uint256",
													"nodeType": "ElementaryTypeName",
													"src": "1040:7:0",
													"typeDescriptions": {
														"typeIdentifier": "t_uint256",
														"typeString": "uint256"
													}
												},
												"visibility": "internal"
											}
										],
										"src": "991:63:0"
									},
									"src": "977:78:0"
								}
							],
							"scope": 69,
							"src": "304:758:0",
							"usedErrors": []
						}
					],
					"src": "0:1062:0"
				},
				"id": 0
			}
		}
	}
}