{
	"id": "e54859968617cba60479d451fb817f45",
	"_format": "hh-sol-build-info-1",
	"solcVersion": "0.8.7",
	"solcLongVersion": "0.8.7+commit.e28d00a7",
	"input": {
		"language": "Solidity",
		"sources": {
			"ERC20.sol": {
				"content": "pragma solidity^0.8.7;\r\n\r\n// ----------------------------------------------------------------------------\r\n// ERC Token Standard #20 Interface\r\n// https://github.com/ethereum/EIPs/blob/master/EIPS/eip-20-token-standard.md\r\n// ----------------------------------------------------------------------------\r\nabstract contract ERC20 {\r\n\r\n   function totalSupply() virtual public view returns (uint256);\r\n    function balanceOf(address _owner) virtual public view returns (uint256 balance);\r\n    function transfer(address _to, uint256 _value) virtual public returns (bool success);\r\n    function transferFrom(address _from, address _to, uint256 _value) virtual public returns (bool success);\r\n    function approve(address _spender, uint256 _value) virtual public returns (bool success);\r\n    function allowance(address _owner, address _spender) virtual public view returns (uint256 remaining);\r\n  \r\n  event Transfer(address indexed from, address indexed to, uint256 value);\r\n  event Approval(address indexed owner, address indexed spender, uint256 value);\r\n  \r\n}"
			}
		},
		"settings": {
			"optimizer": {
				"enabled": false,
				"runs": 200
			},
			"outputSelection": {
				"*": {
					"": [
						"ast"
					],
					"*": [
						"abi",
						"metadata",
						"devdoc",
						"userdoc",
						"storageLayout",
						"evm.legacyAssembly",
						"evm.bytecode",
						"evm.deployedBytecode",
						"evm.methodIdentifiers",
						"evm.gasEstimates",
						"evm.assembly"
					]
				}
			}
		}
	},
	"output": {
		"contracts": {
			"ERC20.sol": {
				"ERC20": {
					"abi": [
						{
							"anonymous": false,
							"inputs": [
								{
									"indexed": true,
									"internalType": "address",
									"name": "owner",
									"type": "address"
								},
								{
									"indexed": true,
									"internalType": "address",
									"name": "spender",
									"type": "address"
								},
								{
									"indexed": false,
									"internalType": "uint256",
									"name": "value",
									"type": "uint256"
								}
							],
							"name": "Approval",
							"type": "event"
						},
						{
							"anonymous": false,
							"inputs": [
								{
									"indexed": true,
									"internalType": "address",
									"name": "from",
									"type": "address"
								},
								{
									"indexed": true,
									"internalType": "address",
									"name": "to",
									"type": "address"
								},
								{
									"indexed": false,
									"internalType": "uint256",
									"name": "value",
									"type": "uint256"
								}
							],
							"name": "Transfer",
							"type": "event"
						},
						{
							"inputs": [
								{
									"internalType": "address",
									"name": "_owner",
									"type": "address"
								},
								{
									"internalType": "address",
									"name": "_spender",
									"type": "address"
								}
							],
							"name": "allowance",
							"outputs": [
								{
									"internalType": "uint256",
									"name": "remaining",
									"type": "uint256"
								}
							],
							"stateMutability": "view",
							"type": "function"
						},
						{
							"inputs": [
								{
									"internalType": "address",
									"name": "_spender",
									"type": "address"
								},
								{
									"internalType": "uint256",
									"name": "_value",
									"type": "uint256"
								}
							],
							"name": "approve",
							"outputs": [
								{
									"internalType": "bool",
									"name": "success",
									"type": "bool"
								}
							],
							"stateMutability": "nonpayable",
							"type": "function"
						},
						{
							"inputs": [
								{
									"internalType": "address",
									"name": "_owner",
									"type": "address"
								}
							],
							"name": "balanceOf",
							"outputs": [
								{
									"internalType": "uint256",
									"name": "balance",
									"type": "uint256"
								}
							],
							"stateMutability": "view",
							"type": "function"
						},
						{
							"inputs": [],
							"name": "totalSupply",
							"outputs": [
								{
									"internalType": "uint256",
									"name": "",
									"type": "uint256"
								}
							],
							"stateMutability": "view",
							"type": "function"
						},
						{
							"inputs": [
								{
									"internalType": "address",
									"name": "_to",
									"type": "address"
								},
								{
									"internalType": "uint256",
									"name": "_value",
									"type": "uint256"
								}
							],
							"name": "transfer",
							"outputs": [
								{
									"internalType": "bool",
									"name": "success",
									"type": "bool"
								}
							],
							"stateMutability": "nonpayable",
							"type": "function"
						},
						{
							"inputs": [
								{
									"internalType": "address",
									"name": "_from",
									"type": "address"
								},
								{
									"internalType": "address",
									"name": "_to",
									"type": "address"
								},
								{
									"internalType": "uint256",
									"name": "_value",
									"type": "uint256"
								}
							],
							"name": "transferFrom",
							"outputs": [
								{
									"internalType": "bool",
									"name": "success",
									"type": "bool"
								}
							],
							"stateMutability": "nonpayable",
							"type": "function"
						}
					],
					"devdoc": {
						"kind": "dev",
						"methods": {},
						"version": 1
					},
					"evm": {
						"assembly": "",
						"bytecode": {
							"functionDebugData": {},
							"generatedSources": [],
							"linkReferences": {},
							"object": "",
							"opcodes": "",
							"sourceMap": ""
						},
						"deployedBytecode": {
							"functionDebugData": {},
							"generatedSources": [],
							"immutableReferences": {},
							"linkReferences": {},
							"object": "",
							"opcodes": "",
							"sourceMap": ""
						},
						"gasEstimates": null,
						"legacyAssembly": null,
						"methodIdentifiers": {
							"allowance(address,address)": "dd62ed3e",
							"approve(address,uint256)": "095ea7b3",
							"balanceOf(address)": "70a08231",
							"totalSupply()": "18160ddd",
							"transfer(address,uint256)": "a9059cbb",
							"transferFrom(address,address,uint256)": "23b872dd"
						}
					},
					"metadata": "{\"compiler\":{\"version\":\"0.8.7+commit.e28d00a7\"},\"language\":\"Solidity\",\"output\":{\"abi\":[{\"anonymous\":false,\"inputs\":[{\"indexed\":true,\"internalType\":\"address\",\"name\":\"owner\",\"type\":\"address\"},{\"indexed\":true,\"internalType\":\"address\",\"name\":\"spender\",\"type\":\"address\"},{\"indexed\":false,\"internalType\":\"uint256\",\"name\":\"value\",\"type\":\"uint256\"}],\"name\":\"Approval\",\"type\":\"event\"},{\"anonymous\":false,\"inputs\":[{\"indexed\":true,\"internalType\":\"address\",\"name\":\"from\",\"type\":\"address\"},{\"indexed\":true,\"internalType\":\"address\",\"name\":\"to\",\"type\":\"address\"},{\"indexed\":false,\"internalType\":\"uint256\",\"name\":\"value\",\"type\":\"uint256\"}],\"name\":\"Transfer\",\"type\":\"event\"},{\"inputs\":[{\"internalType\":\"address\",\"name\":\"_owner\",\"type\":\"address\"},{\"internalType\":\"address\",\"name\":\"_spender\",\"type\":\"address\"}],\"name\":\"allowance\",\"outputs\":[{\"internalType\":\"uint256\",\"name\":\"remaining\",\"type\":\"uint256\"}],\"stateMutability\":\"view\",\"type\":\"function\"},{\"inputs\":[{\"internalType\":\"address\",\"name\":\"_spender\",\"type\":\"address\"},{\"internalType\":\"uint256\",\"name\":\"_value\",\"type\":\"uint256\"}],\"name\":\"approve\",\"outputs\":[{\"internalType\":\"bool\",\"name\":\"success\",\"type\":\"bool\"}],\"stateMutability\":\"nonpayable\",\"type\":\"function\"},{\"inputs\":[{\"internalType\":\"address\",\"name\":\"_owner\",\"type\":\"address\"}],\"name\":\"balanceOf\",\"outputs\":[{\"internalType\":\"uint256\",\"name\":\"balance\",\"type\":\"uint256\"}],\"stateMutability\":\"view\",\"type\":\"function\"},{\"inputs\":[],\"name\":\"totalSupply\",\"outputs\":[{\"internalType\":\"uint256\",\"name\":\"\",\"type\":\"uint256\"}],\"stateMutability\":\"view\",\"type\":\"function\"},{\"inputs\":[{\"internalType\":\"address\",\"name\":\"_to\",\"type\":\"address\"},{\"internalType\":\"uint256\",\"name\":\"_value\",\"type\":\"uint256\"}],\"name\":\"transfer\",\"outputs\":[{\"internalType\":\"bool\",\"name\":\"success\",\"type\":\"bool\"}],\"stateMutability\":\"nonpayable\",\"type\":\"function\"},{\"inputs\":[{\"internalType\":\"address\",\"name\":\"_from\",\"type\":\"address\"},{\"internalType\":\"address\",\"name\":\"_to\",\"type\":\"address\"},{\"internalType\":\"uint256\",\"name\":\"_value\",\"type\":\"uint256\"}],\"name\":\"transferFrom\",\"outputs\":[{\"internalType\":\"bool\",\"name\":\"success\",\"type\":\"bool\"}],\"stateMutability\":\"nonpayable\",\"type\":\"function\"}],\"devdoc\":{\"kind\":\"dev\",\"methods\":{},\"version\":1},\"userdoc\":{\"kind\":\"user\",\"methods\":{},\"version\":1}},\"settings\":{\"compilationTarget\":{\"ERC20.sol\":\"ERC20\"},\"evmVersion\":\"london\",\"libraries\":{},\"metadata\":{\"bytecodeHash\":\"ipfs\"},\"optimizer\":{\"enabled\":false,\"runs\":200},\"remappings\":[]},\"sources\":{\"ERC20.sol\":{\"keccak256\":\"0x7c29cc17acb788ae44595b3b39729a5700ecf0efaf9a2f7f15758a7432e093e0\",\"urls\":[\"bzz-raw://835e17cb9f6e54e3be76cafbdfca6ab935e1cb323c8ac1b4fde9ddbe9fdf0a44\",\"dweb:/ipfs/QmdAiWUsqYqdXQ8bjeYPVJsXgi4HpnMCxRsWE8WVErrYpK\"]}},\"version\":1}",
					"storageLayout": {
						"storage": [],
						"types": null
					},
					"userdoc": {
						"kind": "user",
						"methods": {},
						"version": 1
					}
				}
			}
		},
		"errors": [
			{
				"component": "general",
				"errorCode": "1878",
				"formattedMessage": "Warning: SPDX license identifier not provided in source file. Before publishing, consider adding a comment containing \"SPDX-License-Identifier: <SPDX-License>\" to each source file. Use \"SPDX-License-Identifier: UNLICENSED\" for non-open-source code. Please see https://spdx.org for more information.\n--> ERC20.sol\n\n",
				"message": "SPDX license identifier not provided in source file. Before publishing, consider adding a comment containing \"SPDX-License-Identifier: <SPDX-License>\" to each source file. Use \"SPDX-License-Identifier: UNLICENSED\" for non-open-source code. Please see https://spdx.org for more information.",
				"severity": "warning",
				"sourceLocation": {
					"end": -1,
					"file": "ERC20.sol",
					"start": -1
				},
				"type": "Warning"
			}
		],
		"sources": {
			"ERC20.sol": {
				"ast": {
					"absolutePath": "ERC20.sol",
					"exportedSymbols": {
						"ERC20": [
							68
						]
					},
					"id": 69,
					"nodeType": "SourceUnit",
					"nodes": [
						{
							"id": 1,
							"literals": [
								"solidity",
								"^",
								"0.8",
								".7"
							],
							"nodeType": "PragmaDirective",
							"src": "0:22:0"
						},
						{
							"abstract": true,
							"baseContracts": [],
							"contractDependencies": [],
							"contractKind": "contract",
							"fullyImplemented": false,
							"id": 68,
							"linearizedBaseContracts": [
								68
							],
							"name": "ERC20",
							"nameLocation": "322:5:0",
							"nodeType": "ContractDefinition",
							"nodes": [
								{
									"functionSelector": "18160ddd",
									"id": 6,
									"implemented": false,
									"kind": "function",
									"modifiers": [],
									"name": "totalSupply",
									"nameLocation": "345:11:0",
									"nodeType": "FunctionDefinition",
									"parameters": {
										"id": 2,
										"nodeType": "ParameterList",
										"parameters": [],
										"src": "356:2:0"
									},
									"returnParameters": {
										"id": 5,
										"nodeType": "ParameterList",
										"parameters": [
											{
												"constant": false,
												"id": 4,
												"mutability": "mutable",
												"name": "",
												"nameLocation": "-1:-1:-1",
												"nodeType": "VariableDeclaration",
												"scope": 6,
												"src": "388:7:0",
												"stateVariable": false,
												"storageLocation": "default",
												"typeDescriptions": {
													"typeIdentifier": "t_uint256",
													"typeString": "uint256"
												},
												"typeName": {
													"id": 3,
													"name": "uint256",
													"nodeType": "ElementaryTypeName",
													"src": "388:7:0",
													"typeDescriptions": {
														"typeIdentifier": "t_uint256",
														"typeString": "uint256"
													}
												},
												"visibility": "internal"
											}
										],
										"src": "387:9:0"
									},
									"scope": 68,
									"src": "336:61:0",
									"stateMutability": "view",
									"virtual": true,
									"visibility": "public"
								},
								{
									"functionSelector": "70a08231",
									"id": 13,
									"implemented": false,
									"kind": "function",
									"modifiers": [],
									"name": "balanceOf",
									"nameLocation": "412:9:0",
									"nodeType": "FunctionDefinition",
									"parameters": {
										"id": 9,
										"nodeType": "ParameterList",
										"parameters": [
											{
												"constant": false,
												"id": 8,
												"mutability": "mutable",
												"name": "_owner",
												"nameLocation": "430:6:0",
												"nodeType": "VariableDeclaration",
												"scope": 13,
												"src": "422:14:0",
												"stateVariable": false,
												"storageLocation": "default",
												"typeDescriptions": {
													"typeIdentifier": "t_address",
													"typeString": "address"
												},
												"typeName": {
													"id": 7,
													"name": "address",
													"nodeType": "ElementaryTypeName",
													"src": "422:7:0",
													"stateMutability": "nonpayable",
													"typeDescriptions": {
														"typeIdentifier": "t_address",
														"typeString": "address"
													}
												},
												"visibility": "internal"
											}
										],
										"src": "421:16:0"
									},
									"returnParameters": {
										"id": 12,
										"nodeType": "ParameterList",
										"parameters": [
											{
												"constant": false,
												"id": 11,
												"mutability": "mutable",
												"name": "balance",
												"nameLocation": "475:7:0",
												"nodeType": "VariableDeclaration",
												"scope": 13,
												"src": "467:15:0",
												"stateVariable": false,
												"storageLocation": "default",
												"typeDescriptions": {
													"typeIdentifier": "t_uint256",
													"typeString": "uint256"
												},
												"typeName": {
													"id": 10,
													"name": "uint256",
													"nodeType": "ElementaryTypeName",
													"src": "467:7:0",
													"typeDescriptions": {
														"typeIdentifier": "t_uint256",
														"typeString": "uint256"
													}
												},
												"visibility": "internal"
											}
										],
										"src": "466:17:0"
									},
									"scope": 68,
									"src": "403:81:0",
									"stateMutability": "view",
									"virtual": true,
									"visibility": "public"
								},
								{
									"functionSelector": "a9059cbb",
									"id": 22,
									"implemented": false,
									"kind": "function",
									"modifiers": [],
									"name": "transfer",
									"nameLocation": "499:8:0",
									"nodeType": "FunctionDefinition",
									"parameters": {
										"id": 18,
										"nodeType": "ParameterList",
										"parameters": [
											{
												"constant": false,
												"id": 15,
												"mutability": "mutable",
												"name": "_to",
												"nameLocation": "516:3:0",
												"nodeType": "VariableDeclaration",
												"scope": 22,
												"src": "508:11:0",
												"stateVariable": false,
												"storageLocation": "default",
												"typeDescriptions": {
													"typeIdentifier": "t_address",
													"typeString": "address"
												},
												"typeName": {
													"id": 14,
													"name": "address",
													"nodeType": "ElementaryTypeName",
													"src": "508:7:0",
													"stateMutability": "nonpayable",
													"typeDescriptions": {
														"typeIdentifier": "t_address",
														"typeString": "address"
													}
												},
												"visibility": "internal"
											},
											{
												"constant": false,
												"id": 17,
												"mutability": "mutable",
												"name": "_value",
												"nameLocation": "529:6:0",
												"nodeType": "VariableDeclaration",
												"scope": 22,
												"src": "521:14:0",
												"stateVariable": false,
												"storageLocation": "default",
												"typeDescriptions": {
													"typeIdentifier": "t_uint256",
													"typeString": "uint256"
												},
												"typeName": {
													"id": 16,
													"name": "uint256",
													"nodeType": "ElementaryTypeName",
													"src": "521:7:0",
													"typeDescriptions": {
														"typeIdentifier": "t_uint256",
														"typeString": "uint256"
													}
												},
												"visibility": "internal"
											}
										],
										"src": "507:29:0"
									},
									"returnParameters": {
										"id": 21,
										"nodeType": "ParameterList",
										"parameters": [
											{
												"constant": false,
												"id": 20,
												"mutability": "mutable",
												"name": "success",
												"nameLocation": "566:7:0",
												"nodeType": "VariableDeclaration",
												"scope": 22,
												"src": "561:12:0",
												"stateVariable": false,
												"storageLocation": "default",
												"typeDescriptions": {
													"typeIdentifier": "t_bool",
													"typeString": "bool"
												},
												"typeName": {
													"id": 19,
													"name": "bool",
													"nodeType": "ElementaryTypeName",
													"src": "561:4:0",
													"typeDescriptions": {
														"typeIdentifier": "t_bool",
														"typeString": "bool"
													}
												},
												"visibility": "internal"
											}
										],
										"src": "560:14:0"
									},
									"scope": 68,
									"src": "490:85:0",
									"stateMutability": "nonpayable",
									"virtual": true,
									"visibility": "public"
								},
								{
									"functionSelector": "23b872dd",
									"id": 33,
									"implemented": false,
									"kind": "function",
									"modifiers": [],
									"name": "transferFrom",
									"nameLocation": "590:12:0",
									"nodeType": "FunctionDefinition",
									"parameters": {
										"id": 29,
										"nodeType": "ParameterList",
										"parameters": [
											{
												"constant": false,
												"id": 24,
												"mutability": "mutable",
												"name": "_from",
												"nameLocation": "611:5:0",
												"nodeType": "VariableDeclaration",
												"scope": 33,
												"src": "603:13:0",
												"stateVariable": false,
												"storageLocation": "default",
												"typeDescriptions": {
													"typeIdentifier": "t_address",
													"typeString": "address"
												},
												"typeName": {
													"id": 23,
													"name": "address",
													"nodeType": "ElementaryTypeName",
													"src": "603:7:0",
													"stateMutability": "nonpayable",
													"typeDescriptions": {
														"typeIdentifier": "t_address",
														"typeString": "address"
													}
												},
												"visibility": "internal"
											},
											{
												"constant": false,
												"id": 26,
												"mutability": "mutable",
												"name": "_to",
												"nameLocation": "626:3:0",
												"nodeType": "VariableDeclaration",
												"scope": 33,
												"src": "618:11:0",
												"stateVariable": false,
												"storageLocation": "default",
												"typeDescriptions": {
													"typeIdentifier": "t_address",
													"typeString": "address"
												},
												"typeName": {
													"id": 25,
													"name": "address",
													"nodeType": "ElementaryTypeName",
													"src": "618:7:0",
													"stateMutability": "nonpayable",
													"typeDescriptions": {
														"typeIdentifier": "t_address",
														"typeString": "address"
													}
												},
												"visibility": "internal"
											},
											{
												"constant": false,
												"id": 28,
												"mutability": "mutable",
												"name": "_value",
												"nameLocation": "639:6:0",
												"nodeType": "VariableDeclaration",
												"scope": 33,
												"src": "631:14:0",
												"stateVariable": false,
												"storageLocation": "default",
												"typeDescriptions": {
													"typeIdentifier": "t_uint256",
													"typeString": "uint256"
												},
												"typeName": {
													"id": 27,
													"name": "uint256",
													"nodeType": "ElementaryTypeName",
													"src": "631:7:0",
													"typeDescriptions": {
														"typeIdentifier": "t_uint256",
														"typeString": "uint256"
													}
												},
												"visibility": "internal"
											}
										],
										"src": "602:44:0"
									},
									"returnParameters": {
										"id": 32,
										"nodeType": "ParameterList",
										"parameters": [
											{
												"constant": false,
												"id": 31,
												"mutability": "mutable",
												"name": "success",
												"nameLocation": "676:7:0",
												"nodeType": "VariableDeclaration",
												"scope": 33,
												"src": "671:12:0",
												"stateVariable": false,
												"storageLocation": "default",
												"typeDescriptions": {
													"typeIdentifier": "t_bool",
													"typeString": "bool"
												},
												"typeName": {
													"id": 30,
													"name": "bool",
													"nodeType": "ElementaryTypeName",
													"src": "671:4:0",
													"typeDescriptions": {
														"typeIdentifier": "t_bool",
														"typeString": "bool"
													}
												},
												"visibility": "internal"
											}
										],
										"src": "670:14:0"
									},
									"scope": 68,
									"src": "581:104:0",
									"stateMutability": "nonpayable",
									"virtual": true,
									"visibility": "public"
								},
								{
									"functionSelector": "095ea7b3",
									"id": 42,
									"implemented": false,
									"kind": "function",
									"modifiers": [],
									"name": "approve",
									"nameLocation": "700:7:0",
									"nodeType": "FunctionDefinition",
									"parameters": {
										"id": 38,
										"nodeType": "ParameterList",
										"parameters": [
											{
												"constant": false,
												"id": 35,
												"mutability": "mutable",
												"name": "_spender",
												"nameLocation": "716:8:0",
												"nodeType": "VariableDeclaration",
												"scope": 42,
												"src": "708:16:0",
												"stateVariable": false,
												"storageLocation": "default",
												"typeDescriptions": {
													"typeIdentifier": "t_address",
													"typeString": "address"
												},
												"typeName": {
													"id": 34,
													"name": "address",
													"nodeType": "ElementaryTypeName",
													"src": "708:7:0",
													"stateMutability": "nonpayable",
													"typeDescriptions": {
														"typeIdentifier": "t_address",
														"typeString": "address"
													}
												},
												"visibility": "internal"
											},
											{
												"constant": false,
												"id": 37,
												"mutability": "mutable",
												"name": "_value",
												"nameLocation": "734:6:0",
												"nodeType": "VariableDeclaration",
												"scope": 42,
												"src": "726:14:0",
												"stateVariable": false,
												"storageLocation": "default",
												"typeDescriptions": {
													"typeIdentifier": "t_uint256",
													"typeString": "uint256"
												},
												"typeName": {
													"id": 36,
													"name": "uint256",
													"nodeType": "ElementaryTypeName",
													"src": "726:7:0",
													"typeDescriptions": {
														"typeIdentifier": "t_uint256",
														"typeString": "uint256"
													}
												},
												"visibility": "internal"
											}
										],
										"src": "707:34:0"
									},
									"returnParameters": {
										"id": 41,
										"nodeType": "ParameterList",
										"parameters": [
											{
												"constant": false,
												"id": 40,
												"mutability": "mutable",
												"name": "success",
												"nameLocation": "771:7:0",
												"nodeType": "VariableDeclaration",
												"scope": 42,
												"src": "766:12:0",
												"stateVariable": false,
												"storageLocation": "default",
												"typeDescriptions": {
													"typeIdentifier": "t_bool",
													"typeString": "bool"
												},
												"typeName": {
													"id": 39,
													"name": "bool",
													"nodeType": "ElementaryTypeName",
													"src": "766:4:0",
													"typeDescriptions": {
														"typeIdentifier": "t_bool",
														"typeString": "bool"
													}
												},
												"visibility": "internal"
											}
										],
										"src": "765:14:0"
									},
									"scope": 68,
									"src": "691:89:0",
									"stateMutability": "nonpayable",
									"virtual": true,
									"visibility": "public"
								},
								{
									"functionSelector": "dd62ed3e",
									"id": 51,
									"implemented": false,
									"kind": "function",
									"modifiers": [],
									"name": "allowance",
									"nameLocation": "795:9:0",
									"nodeType": "FunctionDefinition",
									"parameters": {
										"id": 47,
										"nodeType": "ParameterList",
										"parameters": [
											{
												"constant": false,
												"id": 44,
												"mutability": "mutable",
												"name": "_owner",
												"nameLocation": "813:6:0",
												"nodeType": "VariableDeclaration",
												"scope": 51,
												"src": "805:14:0",
												"stateVariable": false,
												"storageLocation": "default",
												"typeDescriptions": {
													"typeIdentifier": "t_address",
													"typeString": "address"
												},
												"typeName": {
													"id": 43,
													"name": "address",
													"nodeType": "ElementaryTypeName",
													"src": "805:7:0",
													"stateMutability": "nonpayable",
													"typeDescriptions": {
														"typeIdentifier": "t_address",
														"typeString": "address"
													}
												},
												"visibility": "internal"
											},
											{
												"constant": false,
												"id": 46,
												"mutability": "mutable",
												"name": "_spender",
												"nameLocation": "829:8:0",
												"nodeType": "VariableDeclaration",
												"scope": 51,
												"src": "821:16:0",
												"stateVariable": false,
												"storageLocation": "default",
												"typeDescriptions": {
													"typeIdentifier": "t_address",
													"typeString": "address"
												},
												"typeName": {
													"id": 45,
													"name": "address",
													"nodeType": "ElementaryTypeName",
													"src": "821:7:0",
													"stateMutability": "nonpayable",
													"typeDescriptions": {
														"typeIdentifier": "t_address",
														"typeString": "address"
													}
												},
												"visibility": "internal"
											}
										],
										"src": "804:34:0"
									},
									"returnParameters": {
										"id": 50,
										"nodeType": "ParameterList",
										"parameters": [
											{
												"constant": false,
												"id": 49,
												"mutability": "mutable",
												"name": "remaining",
												"nameLocation": "876:9:0",
												"nodeType": "VariableDeclaration",
												"scope": 51,
												"src": "868:17:0",
												"stateVariable": false,
												"storageLocation": "default",
												"typeDescriptions": {
													"typeIdentifier": "t_uint256",
													"typeString": "uint256"
												},
												"typeName": {
													"id": 48,
													"name": "uint256",
													"nodeType": "ElementaryTypeName",
													"src": "868:7:0",
													"typeDescriptions": {
														"typeIdentifier": "t_uint256",
														"typeString": "uint256"
													}
												},
												"visibility": "internal"
											}
										],
										"src": "867:19:0"
									},
									"scope": 68,
									"src": "786:101:0",
									"stateMutability": "view",
									"virtual": true,
									"visibility": "public"
								},
								{
									"anonymous": false,
									"id": 59,
									"name": "Transfer",
									"nameLocation": "901:8:0",
									"nodeType": "EventDefinition",
									"parameters": {
										"id": 58,
										"nodeType": "ParameterList",
										"parameters": [
											{
												"constant": false,
												"id": 53,
												"indexed": true,
												"mutability": "mutable",
												"name": "from",
												"nameLocation": "926:4:0",
												"nodeType": "VariableDeclaration",
												"scope": 59,
												"src": "910:20:0",
												"stateVariable": false,
												"storageLocation": "default",
												"typeDescriptions": {
													"typeIdentifier": "t_address",
													"typeString": "address"
												},
												"typeName": {
													"id": 52,
													"name": "address",
													"nodeType": "ElementaryTypeName",
													"src": "910:7:0",
													"stateMutability": "nonpayable",
													"typeDescriptions": {
														"typeIdentifier": "t_address",
														"typeString": "address"
													}
												},
												"visibility": "internal"
											},
											{
												"constant": false,
												"id": 55,
												"indexed": true,
												"mutability": "mutable",
												"name": "to",
												"nameLocation": "948:2:0",
												"nodeType": "VariableDeclaration",
												"scope": 59,
												"src": "932:18:0",
												"stateVariable": false,
												"storageLocation": "default",
												"typeDescriptions": {
													"typeIdentifier": "t_address",
													"typeString": "address"
												},
												"typeName": {
													"id": 54,
													"name": "address",
													"nodeType": "ElementaryTypeName",
													"src": "932:7:0",
													"stateMutability": "nonpayable",
													"typeDescriptions": {
														"typeIdentifier": "t_address",
														"typeString": "address"
													}
												},
												"visibility": "internal"
											},
											{
												"constant": false,
												"id": 57,
												"indexed": false,
												"mutability": "mutable",
												"name": "value",
												"nameLocation": "960:5:0",
												"nodeType": "VariableDeclaration",
												"scope": 59,
												"src": "952:13:0",
												"stateVariable": false,
												"storageLocation": "default",
												"typeDescriptions": {
													"typeIdentifier": "t_uint256",
													"typeString": "uint256"
												},
												"typeName": {
													"id": 56,
													"name": "uint256",
													"nodeType": "ElementaryTypeName",
													"src": "952:7:0",
													"typeDescriptions": {
														"typeIdentifier": "t_uint256",
														"typeString": "uint256"
													}
												},
												"visibility": "internal"
											}
										],
										"src": "909:57:0"
									},
									"src": "895:72:0"
								},
								{
									"anonymous": false,
									"id": 67,
									"name": "Approval",
									"nameLocation": "977:8:0",
									"nodeType": "EventDefinition",
									"parameters": {
										"id": 66,
										"nodeType": "ParameterList",
										"parameters": [
											{
												"constant": false,
												"id": 61,
												"indexed": true,
												"mutability": "mutable",
												"name": "owner",
												"nameLocation": "1002:5:0",
												"nodeType": "VariableDeclaration",
												"scope": 67,
												"src": "986:21:0",
												"stateVariable": false,
												"storageLocation": "default",
												"typeDescriptions": {
													"typeIdentifier": "t_address",
													"typeString": "address"
												},
												"typeName": {
													"id": 60,
													"name": "address",
													"nodeType": "ElementaryTypeName",
													"src": "986:7:0",
													"stateMutability": "nonpayable",
													"typeDescriptions": {
														"typeIdentifier": "t_address",
														"typeString": "address"
													}
												},
												"visibility": "internal"
											},
											{
												"constant": false,
												"id": 63,
												"indexed": true,
												"mutability": "mutable",
												"name": "spender",
												"nameLocation": "1025:7:0",
												"nodeType": "VariableDeclaration",
												"scope": 67,
												"src": "1009:23:0",
												"stateVariable": false,
												"storageLocation": "default",
												"typeDescriptions": {
													"typeIdentifier": "t_address",
													"typeString": "address"
												},
												"typeName": {
													"id": 62,
													"name": "address",
													"nodeType": "ElementaryTypeName",
													"src": "1009:7:0",
													"stateMutability": "nonpayable",
													"typeDescriptions": {
														"typeIdentifier": "t_address",
														"typeString": "address"
													}
												},
												"visibility": "internal"
											},
											{
												"constant": false,
												"id": 65,
												"indexed": false,
												"mutability": "mutable",
												"name": "value",
												"nameLocation": "1042:5:0",
												"nodeType": "VariableDeclaration",
												"scope": 67,
												"src": "1034:13:0",
												"stateVariable": false,
												"storageLocation": "default",
												"typeDescriptions": {
													"typeIdentifier": "t_uint256",
													"typeString": "uint256"
												},
												"typeName": {
													"id": 64,
													"name": "uint256",
													"nodeType": "ElementaryTypeName",
													"src": "1034:7:0",
													"typeDescriptions": {
														"typeIdentifier": "t_uint256",
														"typeString": "uint256"
													}
												},
												"visibility": "internal"
											}
										],
										"src": "985:63:0"
									},
									"src": "971:78:0"
								}
							],
							"scope": 69,
							"src": "304:752:0",
							"usedErrors": []
						}
					],
					"src": "0:1056:0"
				},
				"id": 0
			}
		}
	}
}